{
    "options": {
      "headerPanelEnabled": false
    },
    "modules": {
      "headerPanel": {
        "options": {
          "localeToggleEnabled": false
        }
      },
      "footerPanel": {
        "options": {
          "downloadEnabled": false
        }
      }
    }
  }